%YAML 1.1
%TAG !u! tag:unity3d.com,2011:
--- !u!1045 &1
EditorBuildSettings:
  m_ObjectHideFlags: 0
  serializedVersion: 2
  m_Scenes:
  - enabled: 1
    path: Assets/_Project/Scenes/Main.unity
    guid: 9fc0d4010bbf28b4594072e72b8655ab
  m_configObjects:
    com.unity.addressableassets: {fileID: 11400000, guid: 5ea63bd03cbce3f4eb7ebdb963c9ae58, type: 2}
    com.unity.localization.settings: {fileID: 11400000, guid: 3a9834c931def7149b271ef32bbbeb21, type: 2}
